Recasting texblocks • texblocks
…
manipulations

gather the columns using tidyr

x%>%
  as.data.frame(convert = TRUE)%>%
  tidyr::gather(col,val,-1)
#> # A tibble: 30 x 3
#>    `1`             col     val
#>    <chr>           <chr> <dbl>
#>  1 number of flips 2     11   
#>  2 number of heads 2      8   
#>  3 proportion      2      0.73
#>  4 number of flips 3     12   
#>  5 number of heads 3      8   
#>  6 proportion      3      0.67
#>  7 number of flips 4     13   
#>  8 number of heads 4      9   
#>  9 proportion      4      0.69
#> 10 number of flips 5     14   
#> # ... with 20 more rows
…
